[
  {
    "layer1":"base layer fabric",
    "layer2":"cotton treated fabric",
    "layer3":"",
    "pain":6.74,
    "diff":0.77,
    "burn":7.51
  },
  {
    "layer1":"base layer fabric",
    "layer2":"cotton treated fabric",
    "layer3":"fleece modacrylic",
    "pain":9.88,
    "diff":2.96,
    "burn":12.84
  },
  {
    "layer1":"base layer fabric",
    "layer2":"fleece modacrylic",
    "layer3":"modacrylic workwear",
    "pain":10.8,
    "diff":2.26,
    "burn":13.06
  },
  {
    "layer1":"base layer fabric",
    "layer2":"fleece modacrylic",
    "layer3":"nomex comfort ripstop workwear",
    "pain":10.28,
    "diff":1.17,
    "burn":11.45
  },
  {
    "layer1":"base layer fabric",
    "layer2":"gore pyrad",
    "layer3":"",
    "pain":12.12,
    "diff":2.31,
    "burn":14.43
  },
  {
    "layer1":"base layer fabric",
    "layer2":"modacrylic workwear",
    "layer3":"",
    "pain":6.19,
    "diff":1.5,
    "burn":7.69
  },
  {
    "layer1":"base layer fabric",
    "layer2":"nomex comfort ripstop workwear",
    "layer3":"",
    "pain":7.49,
    "diff":1.03,
    "burn":8.52
  },
  {
    "layer1":"base layer fabric",
    "layer2":"cotton treated fabric",
    "layer3":"polo shirt fabric modacrylic",
    "pain":8.86,
    "diff":3.45,
    "burn":12.31
  },
  {
    "layer1":"base layer fabric",
    "layer2":"fleece modacrylic",
    "layer3":"polo shirt fabric modacrylic",
    "pain":11.71,
    "diff":4.47,
    "burn":16.18
  },
  {
    "layer1":"base layer fabric",
    "layer2":"gore pyrad",
    "layer3":"polo shirt fabric modacrylic",
    "pain":14.48,
    "diff":5.22,
    "burn":19.7
  },
  {
    "layer1":"base layer fabric",
    "layer2":"modacrylic workwear",
    "layer3":"polo shirt fabric modacrylic",
    "pain":9.9,
    "diff":2.09,
    "burn":11.99
  },
  {
    "layer1":"base layer fabric",
    "layer2":"nomex comfort ripstop workwear",
    "layer3":"polo shirt fabric modacrylic",
    "pain":9.99,
    "diff":1.46,
    "burn":11.45
  },
  {
    "layer1":"base layer fabric",
    "layer2":"polo shirt fabric modacrylic",
    "layer3":"sweatshirt modacrylic",
    "pain":10.62,
    "diff":3.16,
    "burn":13.78
  },
  {
    "layer1":"base layer fabric",
    "layer2":"polo shirt fabric modacrylic",
    "layer3":"",
    "pain":6.09,
    "diff":1.09,
    "burn":7.18
  },
  {
    "layer1":"base layer fabric",
    "layer2":"cotton treated fabric",
    "layer3":"polo shirt fabric nomex viscose",
    "pain":9.13,
    "diff":4.88,
    "burn":14.01
  },
  {
    "layer1":"base layer fabric",
    "layer2":"gore pyrad",
    "layer3":"polo shirt fabric nomex viscose",
    "pain":12.76,
    "diff":4.05,
    "burn":16.81
  },
  {
    "layer1":"base layer fabric",
    "layer2":"nomex comfort ripstop workwear",
    "layer3":"polo shirt fabric nomex viscose",
    "pain":10.68,
    "diff":2.13,
    "burn":12.81
  },
  {
    "layer1":"base layer fabric",
    "layer2":"cotton treated fabric",
    "layer3":"sweatshirt modacrylic",
    "pain":9.32,
    "diff":3.37,
    "burn":12.69
  },
  {
    "layer1":"base layer fabric",
    "layer2":"modacrylic workwear",
    "layer3":"sweatshirt modacrylic",
    "pain":10.72,
    "diff":2.21,
    "burn":12.93
  },
  {
    "layer1":"base layer fabric",
    "layer2":"nomex comfort ripstop workwear",
    "layer3":"sweatshirt modacrylic",
    "pain":10.25,
    "diff":1.16,
    "burn":11.41
  },
  {
    "layer1":"base layer fabric",
    "layer2":"",
    "layer3":"",
    "pain":3.77,
    "diff":0.55,
    "burn":4.32
  },
  {
    "layer1":"cotton treated fabric",
    "layer2":"gore pyrad",
    "layer3":"",
    "pain":11.63,
    "diff":3.23,
    "burn":14.86
  },
  {
    "layer1":"cotton treated fabric",
    "layer2":"",
    "layer3":"",
    "pain":5.02,
    "diff":0.46,
    "burn":5.48
  },
  {
    "layer1":"cotton treated fabric",
    "layer2":"fleece modacrylic",
    "layer3":"",
    "pain":8.06,
    "diff":3.53,
    "burn":11.59
  },
  {
    "layer1":"fleece modacrylic",
    "layer2":"gore pyrad",
    "layer3":"",
    "pain":13.61,
    "diff":4.96,
    "burn":18.57
  },
  {
    "layer1":"fleece modacrylic",
    "layer2":"modacrylic workwear",
    "layer3":"",
    "pain":9.12,
    "diff":1.54,
    "burn":10.66
  },
  {
    "layer1":"fleece modacrylic",
    "layer2":"nomex comfort ripstop workwear",
    "layer3":"",
    "pain":9.59,
    "diff":0.75,
    "burn":10.34
  },
  {
    "layer1":"fleece modacrylic",
    "layer2":"",
    "layer3":"",
    "pain":5.57,
    "diff":0.73,
    "burn":6.3
  },
  {
    "layer1":"gore pyrad",
    "layer2":"",
    "layer3":"",
    "pain":8.96,
    "diff":2.27,
    "burn":11.23
  },
  {
    "layer1":"gore pyrad",
    "layer2":"modacrylic workwear",
    "layer3":"",
    "pain":8.06,
    "diff":3.53,
    "burn":11.59
  },
  {
    "layer1":"modacrylic workwear",
    "layer2":"",
    "layer3":"",
    "pain":4.22,
    "diff":0.17,
    "burn":4.39
  },
  {
    "layer1":"gore pyrad",
    "layer2":"nomex comfort ripstop workwear",
    "layer3":"",
    "pain":11.69,
    "diff":2.76,
    "burn":14.45
  },
  {
    "layer1":"nomex comfort ripstop workwear",
    "layer2":"",
    "layer3":"",
    "pain":4.52,
    "diff":0.46,
    "burn":4.98
  },
  {
    "layer1":"cotton treated fabric",
    "layer2":"gore pyrad",
    "layer3":"polo shirt fabric modacrylic",
    "pain":13.14,
    "diff":4.78,
    "burn":17.92
  },
  {
    "layer1":"cotton treated fabric",
    "layer2":"polo shirt fabric modacrylic",
    "layer3":"",
    "pain":7.49,
    "diff":2.03,
    "burn":9.52
  },
  {
    "layer1":"fleece modacrylic",
    "layer2":"gore pyrad",
    "layer3":"polo shirt fabric modacrylic",
    "pain":15.79,
    "diff":5.25,
    "burn":21.04
  },
  {
    "layer1":"fleece modacrylic",
    "layer2":"modacrylic workwear",
    "layer3":"polo shirt fabric modacrylic",
    "pain":11.78,
    "diff":2.42,
    "burn":14.2
  },
  {
    "layer1":"fleece modacrylic",
    "layer2":"polo shirt fabric modacrylic",
    "layer3":"",
    "pain":8.11,
    "diff":2.75,
    "burn":10.86
  },
  {
    "layer1":"gore pyrad",
    "layer2":"polo shirt fabric modacrylic",
    "layer3":"",
    "pain":12.88,
    "diff":2.9,
    "burn":15.78
  },
  {
    "layer1":"gore pyrad",
    "layer2":"modacrylic workwear",
    "layer3":"polo shirt fabric modacrylic",
    "pain":14.32,
    "diff":5.67,
    "burn":19.99
  },
  {
    "layer1":"modacrylic workwear",
    "layer2":"polo shirt fabric modacrylic",
    "layer3":"",
    "pain":7.62,
    "diff":1.76,
    "burn":9.38
  },
  {
    "layer1":"gore pyrad",
    "layer2":"nomex comfort ripstop workwear",
    "layer3":"polo shirt fabric modacrylic",
    "pain":13.67,
    "diff":5.93,
    "burn":19.6
  },
  {
    "layer1":"nomex comfort ripstop workwear",
    "layer2":"polo shirt fabric modacrylic",
    "layer3":"",
    "pain":8.31,
    "diff":1.69,
    "burn":10
  },
  {
    "layer1":"gore pyrad",
    "layer2":"polo shirt fabric modacrylic",
    "layer3":"sweatshirt modacrylic",
    "pain":15.89,
    "diff":5.39,
    "burn":21.28
  },
  {
    "layer1":"modacrylic workwear",
    "layer2":"polo shirt fabric modacrylic",
    "layer3":"sweatshirt modacrylic",
    "pain":11.06,
    "diff":2.07,
    "burn":13.13
  },
  {
    "layer1":"polo shirt fabric modacrylic",
    "layer2":"sweatshirt modacrylic",
    "layer3":"",
    "pain":7.47,
    "diff":2.28,
    "burn":9.75
  },
  {
    "layer1":"polo shirt fabric modacrylic",
    "layer2":"",
    "layer3":"",
    "pain":4.12,
    "diff":0.33,
    "burn":4.45
  },
  {
    "layer1":"gore pyrad",
    "layer2":"polo shirt fabric nomex viscose",
    "layer3":"",
    "pain":11.99,
    "diff":2.92,
    "burn":14.91
  },
  {
    "layer1":"polo shirt fabric nomex viscose",
    "layer2":"",
    "layer3":"",
    "pain":5.56,
    "diff":0.65,
    "burn":6.21
  },
  {
    "layer1":"cotton treated fabric",
    "layer2":"sweatshirt modacrylic",
    "layer3":"",
    "pain":7.85,
    "diff":3.37,
    "burn":11.22
  },
  {
    "layer1":"gore pyrad",
    "layer2":"sweatshirt modacrylic",
    "layer3":"",
    "pain":13.26,
    "diff":4.25,
    "burn":17.51
  },
  {
    "layer1":"modacrylic workwear",
    "layer2":"sweatshirt modacrylic",
    "layer3":"",
    "pain":9.08,
    "diff":1.56,
    "burn":10.64
  },
  {
    "layer1":"nomex comfort ripstop workwear",
    "layer2":"sweatshirt modacrylic",
    "layer3":"",
    "pain":9.71,
    "diff":0.97,
    "burn":10.68
  },
  {
    "layer1":"sweatshirt modacrylic",
    "layer2":"",
    "layer3":"",
    "pain":5.76,
    "diff":0.78,
    "burn":6.54
  }
]